%YAML 1.1
%TAG !u! tag:unity3d.com,2011:
--- !u!29 &1
OcclusionCullingSettings:
  m_ObjectHideFlags: 0
  serializedVersion: 2
  m_OcclusionBakeSettings:
    smallestOccluder: 5
    smallestHole: 0.25
    backfaceThreshold: 100
  m_SceneGUID: 00000000000000000000000000000000
  m_OcclusionCullingData: {fileID: 0}
--- !u!104 &2
RenderSettings:
  m_ObjectHideFlags: 0
  serializedVersion: 8
  m_Fog: 0
  m_FogColor: {r: 0.5, g: 0.5, b: 0.5, a: 1}
  m_FogMode: 3
  m_FogDensity: 0.01
  m_LinearFogStart: 0
  m_LinearFogEnd: 300
  m_AmbientSkyColor: {r: 0.212, g: 0.227, b: 0.259, a: 1}
  m_AmbientEquatorColor: {r: 0.114, g: 0.125, b: 0.133, a: 1}
  m_AmbientGroundColor: {r: 0.047, g: 0.043, b: 0.035, a: 1}
  m_AmbientIntensity: 1
  m_AmbientMode: 0
  m_SubtractiveShadowColor: {r: 0.42, g: 0.478, b: 0.627, a: 1}
  m_SkyboxMaterial: {fileID: 10304, guid: 0000000000000000f000000000000000, type: 0}
  m_HaloStrength: 0.5
  m_FlareStrength: 1
  m_FlareFadeSpeed: 3
  m_HaloTexture: {fileID: 0}
  m_SpotCookie: {fileID: 10001, guid: 0000000000000000e000000000000000, type: 0}
  m_DefaultReflectionMode: 0
  m_DefaultReflectionResolution: 128
  m_ReflectionBounces: 1
  m_ReflectionIntensity: 1
  m_CustomReflection: {fileID: 0}
  m_Sun: {fileID: 0}
  m_IndirectSpecularColor: {r: 0.44657898, g: 0.4964133, b: 0.5748178, a: 1}
--- !u!157 &3
LightmapSettings:
  m_ObjectHideFlags: 0
  serializedVersion: 11
  m_GIWorkflowMode: 0
  m_GISettings:
    serializedVersion: 2
    m_BounceScale: 1
    m_IndirectOutputScale: 1
    m_AlbedoBoost: 1
    m_TemporalCoherenceThreshold: 1
    m_EnvironmentLightingMode: 0
    m_EnableBakedLightmaps: 1
    m_EnableRealtimeLightmaps: 1
  m_LightmapEditorSettings:
    serializedVersion: 9
    m_Resolution: 2
    m_BakeResolution: 40
    m_TextureWidth: 1024
    m_TextureHeight: 1024
    m_AO: 0
    m_AOMaxDistance: 1
    m_CompAOExponent: 1
    m_CompAOExponentDirect: 0
    m_Padding: 2
    m_LightmapParameters: {fileID: 0}
    m_LightmapsBakeMode: 1
    m_TextureCompression: 1
    m_FinalGather: 0
    m_FinalGatherFiltering: 1
    m_FinalGatherRayCount: 256
    m_ReflectionCompression: 2
    m_MixedBakeMode: 1
    m_BakeBackend: 0
    m_PVRSampling: 1
    m_PVRDirectSampleCount: 32
    m_PVRSampleCount: 500
    m_PVRBounces: 2
    m_PVRFilterTypeDirect: 0
    m_PVRFilterTypeIndirect: 0
    m_PVRFilterTypeAO: 0
    m_PVRFilteringMode: 0
    m_PVRCulling: 1
    m_PVRFilteringGaussRadiusDirect: 1
    m_PVRFilteringGaussRadiusIndirect: 5
    m_PVRFilteringGaussRadiusAO: 2
    m_PVRFilteringAtrousPositionSigmaDirect: 0.5
    m_PVRFilteringAtrousPositionSigmaIndirect: 2
    m_PVRFilteringAtrousPositionSigmaAO: 1
    m_ShowResolutionOverlay: 1
  m_LightingDataAsset: {fileID: 0}
  m_UseShadowmask: 0
--- !u!196 &4
NavMeshSettings:
  serializedVersion: 2
  m_ObjectHideFlags: 0
  m_BuildSettings:
    serializedVersion: 2
    agentTypeID: 0
    agentRadius: 0.5
    agentHeight: 2
    agentSlope: 45
    agentClimb: 0.4
    ledgeDropHeight: 0
    maxJumpAcrossDistance: 0
    minRegionArea: 2
    manualCellSize: 0
    cellSize: 0.16666667
    manualTileSize: 0
    tileSize: 256
    accuratePlacement: 0
    debug:
      m_Flags: 0
  m_NavMeshData: {fileID: 0}
--- !u!1001 &219535457
Prefab:
  m_ObjectHideFlags: 0
  serializedVersion: 2
  m_Modification:
    m_TransformParent: {fileID: 0}
    m_Modifications:
    - target: {fileID: 4000012414046668, guid: 8ddd92bdf8671704d94657c5f04fc0be, type: 2}
      propertyPath: m_LocalPosition.x
      value: -8.707
      objectReference: {fileID: 0}
    - target: {fileID: 4000012414046668, guid: 8ddd92bdf8671704d94657c5f04fc0be, type: 2}
      propertyPath: m_LocalPosition.y
      value: 2.702
      objectReference: {fileID: 0}
    - target: {fileID: 4000012414046668, guid: 8ddd92bdf8671704d94657c5f04fc0be, type: 2}
      propertyPath: m_LocalPosition.z
      value: -2.703
      objectReference: {fileID: 0}
    - target: {fileID: 4000012414046668, guid: 8ddd92bdf8671704d94657c5f04fc0be, type: 2}
      propertyPath: m_LocalRotation.x
      value: -0
      objectReference: {fileID: 0}
    - target: {fileID: 4000012414046668, guid: 8ddd92bdf8671704d94657c5f04fc0be, type: 2}
      propertyPath: m_LocalRotation.y
      value: 0
      objectReference: {fileID: 0}
    - target: {fileID: 4000012414046668, guid: 8ddd92bdf8671704d94657c5f04fc0be, type: 2}
      propertyPath: m_LocalRotation.z
      value: -0.99999964
      objectReference: {fileID: 0}
    - target: {fileID: 4000012414046668, guid: 8ddd92bdf8671704d94657c5f04fc0be, type: 2}
      propertyPath: m_LocalRotation.w
      value: -0.00087260123
      objectReference: {fileID: 0}
    - target: {fileID: 4000012414046668, guid: 8ddd92bdf8671704d94657c5f04fc0be, type: 2}
      propertyPath: m_RootOrder
      value: 5
      objectReference: {fileID: 0}
    - target: {fileID: 4000012414046668, guid: 8ddd92bdf8671704d94657c5f04fc0be, type: 2}
      propertyPath: m_LocalEulerAnglesHint.x
      value: 0
      objectReference: {fileID: 0}
    - target: {fileID: 4000012414046668, guid: 8ddd92bdf8671704d94657c5f04fc0be, type: 2}
      propertyPath: m_LocalEulerAnglesHint.y
      value: 0
      objectReference: {fileID: 0}
    - target: {fileID: 4000012414046668, guid: 8ddd92bdf8671704d94657c5f04fc0be, type: 2}
      propertyPath: m_LocalEulerAnglesHint.z
      value: -180.1
      objectReference: {fileID: 0}
    m_RemovedComponents: []
  m_ParentPrefab: {fileID: 100100000, guid: 8ddd92bdf8671704d94657c5f04fc0be, type: 2}
  m_RootGameObject: {fileID: 1383142575}
  m_IsPrefabParent: 0
--- !u!1001 &257697755
Prefab:
  m_ObjectHideFlags: 0
  serializedVersion: 2
  m_Modification:
    m_TransformParent: {fileID: 0}
    m_Modifications:
    - target: {fileID: 4000010841522358, guid: de49971f04e49d3469405279c2afd0bc, type: 2}
      propertyPath: m_LocalPosition.x
      value: -9.04
      objectReference: {fileID: 0}
    - target: {fileID: 4000010841522358, guid: de49971f04e49d3469405279c2afd0bc, type: 2}
      propertyPath: m_LocalPosition.y
      value: 1.22
      objectReference: {fileID: 0}
    - target: {fileID: 4000010841522358, guid: de49971f04e49d3469405279c2afd0bc, type: 2}
      propertyPath: m_LocalPosition.z
      value: -1.8
      objectReference: {fileID: 0}
    - target: {fileID: 4000010841522358, guid: de49971f04e49d3469405279c2afd0bc, type: 2}
      propertyPath: m_LocalRotation.x
      value: -0
      objectReference: {fileID: 0}
    - target: {fileID: 4000010841522358, guid: de49971f04e49d3469405279c2afd0bc, type: 2}
      propertyPath: m_LocalRotation.y
      value: 0
      objectReference: {fileID: 0}
    - target: {fileID: 4000010841522358, guid: de49971f04e49d3469405279c2afd0bc, type: 2}
      propertyPath: m_LocalRotation.z
      value: -0.7071068
      objectReference: {fileID: 0}
    - target: {fileID: 4000010841522358, guid: de49971f04e49d3469405279c2afd0bc, type: 2}
      propertyPath: m_LocalRotation.w
      value: 0.7071068
      objectReference: {fileID: 0}
    - target: {fileID: 4000010841522358, guid: de49971f04e49d3469405279c2afd0bc, type: 2}
      propertyPath: m_RootOrder
      value: 7
      objectReference: {fileID: 0}
    - target: {fileID: 4000010841522358, guid: de49971f04e49d3469405279c2afd0bc, type: 2}
      propertyPath: m_LocalEulerAnglesHint.x
      value: -180
      objectReference: {fileID: 0}
    - target: {fileID: 4000010841522358, guid: de49971f04e49d3469405279c2afd0bc, type: 2}
      propertyPath: m_LocalEulerAnglesHint.z
      value: 90
      objectReference: {fileID: 0}
    - target: {fileID: 4000010841522358, guid: de49971f04e49d3469405279c2afd0bc, type: 2}
      propertyPath: m_LocalEulerAnglesHint.y
      value: -180
      objectReference: {fileID: 0}
    m_RemovedComponents: []
  m_ParentPrefab: {fileID: 100100000, guid: de49971f04e49d3469405279c2afd0bc, type: 2}
  m_RootGameObject: {fileID: 1789553190}
  m_IsPrefabParent: 0
--- !u!1001 &277758943
Prefab:
  m_ObjectHideFlags: 0
  serializedVersion: 2
  m_Modification:
    m_TransformParent: {fileID: 0}
    m_Modifications:
    - target: {fileID: 4000010544313584, guid: 36e52bed9a7cf6a4d83fb7667bb2b1a8, type: 2}
      propertyPath: m_LocalPosition.x
      value: -8.46
      objectReference: {fileID: 0}
    - target: {fileID: 4000010544313584, guid: 36e52bed9a7cf6a4d83fb7667bb2b1a8, type: 2}
      propertyPath: m_LocalPosition.y
      value: -0.049
      objectReference: {fileID: 0}
    - target: {fileID: 4000010544313584, guid: 36e52bed9a7cf6a4d83fb7667bb2b1a8, type: 2}
      propertyPath: m_LocalPosition.z
      value: -2.93
      objectReference: {fileID: 0}
    - target: {fileID: 4000010544313584, guid: 36e52bed9a7cf6a4d83fb7667bb2b1a8, type: 2}
      propertyPath: m_LocalRotation.x
      value: -0.6782805
      objectReference: {fileID: 0}
    - target: {fileID: 4000010544313584, guid: 36e52bed9a7cf6a4d83fb7667bb2b1a8, type: 2}
      propertyPath: m_LocalRotation.y
      value: -0.19912119
      objectReference: {fileID: 0}
    - target: {fileID: 4000010544313584, guid: 36e52bed9a7cf6a4d83fb7667bb2b1a8, type: 2}
      propertyPath: m_LocalRotation.z
      value: -0.1989857
      objectReference: {fileID: 0}
    - target: {fileID: 4000010544313584, guid: 36e52bed9a7cf6a4d83fb7667bb2b1a8, type: 2}
      propertyPath: m_LocalRotation.w
      value: 0.6787423
      objectReference: {fileID: 0}
    - target: {fileID: 4000010544313584, guid: 36e52bed9a7cf6a4d83fb7667bb2b1a8, type: 2}
      propertyPath: m_RootOrder
      value: 3
      objectReference: {fileID: 0}
    - target: {fileID: 1000010135718398, guid: 36e52bed9a7cf6a4d83fb7667bb2b1a8, type: 2}
      propertyPath: m_Name
      value: box (2)
      objectReference: {fileID: 0}
    - target: {fileID: 4000010544313584, guid: 36e52bed9a7cf6a4d83fb7667bb2b1a8, type: 2}
      propertyPath: m_LocalEulerAnglesHint.x
      value: -89.961006
      objectReference: {fileID: 0}
    - target: {fileID: 4000010544313584, guid: 36e52bed9a7cf6a4d83fb7667bb2b1a8, type: 2}
      propertyPath: m_LocalEulerAnglesHint.y
      value: -32.7
      objectReference: {fileID: 0}
    m_RemovedComponents: []
  m_ParentPrefab: {fileID: 100100000, guid: 36e52bed9a7cf6a4d83fb7667bb2b1a8, type: 2}
  m_RootGameObject: {fileID: 1302920540}
  m_IsPrefabParent: 0
--- !u!1 &340730583
GameObject:
  m_ObjectHideFlags: 0
  m_PrefabParentObject: {fileID: 0}
  m_PrefabInternal: {fileID: 0}
  serializedVersion: 5
  m_Component:
  - component: {fileID: 340730585}
  - component: {fileID: 340730584}
  m_Layer: 0
  m_Name: Directional Light
  m_TagString: Untagged
  m_Icon: {fileID: 0}
  m_NavMeshLayer: 0
  m_StaticEditorFlags: 0
  m_IsActive: 1
--- !u!108 &340730584
Light:
  m_ObjectHideFlags: 0
  m_PrefabParentObject: {fileID: 0}
  m_PrefabInternal: {fileID: 0}
  m_GameObject: {fileID: 340730583}
  m_Enabled: 1
  serializedVersion: 8
  m_Type: 1
  m_Color: {r: 1, g: 0.95686275, b: 0.8392157, a: 1}
  m_Intensity: 1
  m_Range: 10
  m_SpotAngle: 30
  m_CookieSize: 10
  m_Shadows:
    m_Type: 2
    m_Resolution: -1
    m_CustomResolution: -1
    m_Strength: 1
    m_Bias: 0.05
    m_NormalBias: 0.4
    m_NearPlane: 0.2
  m_Cookie: {fileID: 0}
  m_DrawHalo: 0
  m_Flare: {fileID: 0}
  m_RenderMode: 0
  m_CullingMask:
    serializedVersion: 2
    m_Bits: 4294967295
  m_Lightmapping: 4
  m_AreaSize: {x: 1, y: 1}
  m_BounceIntensity: 1
  m_ColorTemperature: 6570
  m_UseColorTemperature: 0
  m_ShadowRadius: 0
  m_ShadowAngle: 0
--- !u!4 &340730585
Transform:
  m_ObjectHideFlags: 0
  m_PrefabParentObject: {fileID: 0}
  m_PrefabInternal: {fileID: 0}
  m_GameObject: {fileID: 340730583}
  m_LocalRotation: {x: 0.40821788, y: -0.23456968, z: 0.10938163, w: 0.8754261}
  m_LocalPosition: {x: 2.51, y: 6.26, z: -12.15}
  m_LocalScale: {x: 1, y: 1, z: 1}
  m_Children: []
  m_Father: {fileID: 0}
  m_RootOrder: 9
  m_LocalEulerAnglesHint: {x: 50, y: -30, z: 0}
--- !u!1001 &576980468
Prefab:
  m_ObjectHideFlags: 0
  serializedVersion: 2
  m_Modification:
    m_TransformParent: {fileID: 0}
    m_Modifications:
    - target: {fileID: 4000013207057914, guid: 5ba9317adf09ffa4e954285b691b5b9d, type: 2}
      propertyPath: m_LocalPosition.x
      value: 6.888
      objectReference: {fileID: 0}
    - target: {fileID: 4000013207057914, guid: 5ba9317adf09ffa4e954285b691b5b9d, type: 2}
      propertyPath: m_LocalPosition.y
      value: 0.43
      objectReference: {fileID: 0}
    - target: {fileID: 4000013207057914, guid: 5ba9317adf09ffa4e954285b691b5b9d, type: 2}
      propertyPath: m_LocalPosition.z
      value: -0.17
      objectReference: {fileID: 0}
    - target: {fileID: 4000013207057914, guid: 5ba9317adf09ffa4e954285b691b5b9d, type: 2}
      propertyPath: m_LocalRotation.x
      value: -0.7071068
      objectReference: {fileID: 0}
    - target: {fileID: 4000013207057914, guid: 5ba9317adf09ffa4e954285b691b5b9d, type: 2}
      propertyPath: m_LocalRotation.y
      value: 0
      objectReference: {fileID: 0}
    - target: {fileID: 4000013207057914, guid: 5ba9317adf09ffa4e954285b691b5b9d, type: 2}
      propertyPath: m_LocalRotation.z
      value: -0
      objectReference: {fileID: 0}
    - target: {fileID: 4000013207057914, guid: 5ba9317adf09ffa4e954285b691b5b9d, type: 2}
      propertyPath: m_LocalRotation.w
      value: 0.7071067
      objectReference: {fileID: 0}
    - target: {fileID: 4000013207057914, guid: 5ba9317adf09ffa4e954285b691b5b9d, type: 2}
      propertyPath: m_RootOrder
      value: 8
      objectReference: {fileID: 0}
    m_RemovedComponents: []
  m_ParentPrefab: {fileID: 100100000, guid: 5ba9317adf09ffa4e954285b691b5b9d, type: 2}
  m_RootGameObject: {fileID: 586189229}
  m_IsPrefabParent: 0
--- !u!1 &586189229
GameObject:
  m_ObjectHideFlags: 0
  m_PrefabParentObject: {fileID: 1000012300543250, guid: 5ba9317adf09ffa4e954285b691b5b9d,
    type: 2}
  m_PrefabInternal: {fileID: 576980468}
  serializedVersion: 5
  m_Component:
  - component: {fileID: 586189232}
  - component: {fileID: 586189231}
  - component: {fileID: 586189230}
  m_Layer: 0
  m_Name: barrel
  m_TagString: Untagged
  m_Icon: {fileID: 0}
  m_NavMeshLayer: 0
  m_StaticEditorFlags: 0
  m_IsActive: 1
--- !u!23 &586189230
MeshRenderer:
  m_ObjectHideFlags: 0
  m_PrefabParentObject: {fileID: 23000010288577224, guid: 5ba9317adf09ffa4e954285b691b5b9d,
    type: 2}
  m_PrefabInternal: {fileID: 576980468}
  m_GameObject: {fileID: 586189229}
  m_Enabled: 1
  m_CastShadows: 1
  m_ReceiveShadows: 1
  m_DynamicOccludee: 1
  m_MotionVectors: 1
  m_LightProbeUsage: 1
  m_ReflectionProbeUsage: 1
  m_Materials:
  - {fileID: 2100000, guid: a8f187f367467ae44b78e683238ffa5d, type: 2}
  m_StaticBatchInfo:
    firstSubMesh: 0
    subMeshCount: 0
  m_StaticBatchRoot: {fileID: 0}
  m_ProbeAnchor: {fileID: 0}
  m_LightProbeVolumeOverride: {fileID: 0}
  m_ScaleInLightmap: 1
  m_PreserveUVs: 0
  m_IgnoreNormalsForChartDetection: 0
  m_ImportantGI: 0
  m_StitchLightmapSeams: 0
  m_SelectedEditorRenderState: 3
  m_MinimumChartSize: 4
  m_AutoUVMaxDistance: 0.5
  m_AutoUVMaxAngle: 89
  m_LightmapParameters: {fileID: 0}
  m_SortingLayerID: 0
  m_SortingLayer: 0
  m_SortingOrder: 0
--- !u!33 &586189231
MeshFilter:
  m_ObjectHideFlags: 0
  m_PrefabParentObject: {fileID: 33000011780020338, guid: 5ba9317adf09ffa4e954285b691b5b9d,
    type: 2}
  m_PrefabInternal: {fileID: 576980468}
  m_GameObject: {fileID: 586189229}
  m_Mesh: {fileID: 4300000, guid: afae18f54a75dc541960b90ad42439a2, type: 3}
--- !u!4 &586189232
Transform:
  m_ObjectHideFlags: 0
  m_PrefabParentObject: {fileID: 4000013207057914, guid: 5ba9317adf09ffa4e954285b691b5b9d,
    type: 2}
  m_PrefabInternal: {fileID: 576980468}
  m_GameObject: {fileID: 586189229}
  m_LocalRotation: {x: -0.7071068, y: 0, z: -0, w: 0.7071067}
  m_LocalPosition: {x: 6.888, y: 0.43, z: -0.17}
  m_LocalScale: {x: 0.5, y: 0.5, z: 0.65}
  m_Children: []
  m_Father: {fileID: 0}
  m_RootOrder: 8
  m_LocalEulerAnglesHint: {x: 0, y: 0, z: 0}
--- !u!1001 &602754975
Prefab:
  m_ObjectHideFlags: 0
  serializedVersion: 2
  m_Modification:
    m_TransformParent: {fileID: 0}
    m_Modifications:
    - target: {fileID: 4000010706693742, guid: 05262e1cb6621c84f8f31dd5b4799010, type: 2}
      propertyPath: m_LocalPosition.x
      value: -9.33
      objectReference: {fileID: 0}
    - target: {fileID: 4000010706693742, guid: 05262e1cb6621c84f8f31dd5b4799010, type: 2}
      propertyPath: m_LocalPosition.y
      value: 0.49
      objectReference: {fileID: 0}
    - target: {fileID: 4000010706693742, guid: 05262e1cb6621c84f8f31dd5b4799010, type: 2}
      propertyPath: m_LocalPosition.z
      value: -3.694
      objectReference: {fileID: 0}
    - target: {fileID: 4000010706693742, guid: 05262e1cb6621c84f8f31dd5b4799010, type: 2}
      propertyPath: m_LocalRotation.x
      value: -0.7071068
      objectReference: {fileID: 0}
    - target: {fileID: 4000010706693742, guid: 05262e1cb6621c84f8f31dd5b4799010, type: 2}
      propertyPath: m_LocalRotation.y
      value: 0
      objectReference: {fileID: 0}
    - target: {fileID: 4000010706693742, guid: 05262e1cb6621c84f8f31dd5b4799010, type: 2}
      propertyPath: m_LocalRotation.z
      value: -0
      objectReference: {fileID: 0}
    - target: {fileID: 4000010706693742, guid: 05262e1cb6621c84f8f31dd5b4799010, type: 2}
      propertyPath: m_LocalRotation.w
      value: 0.7071067
      objectReference: {fileID: 0}
    - target: {fileID: 4000010706693742, guid: 05262e1cb6621c84f8f31dd5b4799010, type: 2}
      propertyPath: m_RootOrder
      value: 2
      objectReference: {fileID: 0}
    m_RemovedComponents: []
  m_ParentPrefab: {fileID: 100100000, guid: 05262e1cb6621c84f8f31dd5b4799010, type: 2}
  m_RootGameObject: {fileID: 2000262588}
  m_IsPrefabParent: 0
--- !u!1 &758588312
GameObject:
  m_ObjectHideFlags: 0
  m_PrefabParentObject: {fileID: 1000013743448318, guid: 05262e1cb6621c84f8f31dd5b4799010,
    type: 2}
  m_PrefabInternal: {fileID: 1977134194}
  serializedVersion: 5
  m_Component:
  - component: {fileID: 758588315}
  - component: {fileID: 758588314}
  - component: {fileID: 758588313}
  m_Layer: 0
  m_Name: Crate (1)
  m_TagString: Untagged
  m_Icon: {fileID: 0}
  m_NavMeshLayer: 0
  m_StaticEditorFlags: 0
  m_IsActive: 1
--- !u!23 &758588313
MeshRenderer:
  m_ObjectHideFlags: 0
  m_PrefabParentObject: {fileID: 23000011582790500, guid: 05262e1cb6621c84f8f31dd5b4799010,
    type: 2}
  m_PrefabInternal: {fileID: 1977134194}
  m_GameObject: {fileID: 758588312}
  m_Enabled: 1
  m_CastShadows: 1
  m_ReceiveShadows: 1
  m_DynamicOccludee: 1
  m_MotionVectors: 1
  m_LightProbeUsage: 1
  m_ReflectionProbeUsage: 1
  m_Materials:
  - {fileID: 2100000, guid: 97429fb59f97eff41870a03268f27a45, type: 2}
  m_StaticBatchInfo:
    firstSubMesh: 0
    subMeshCount: 0
  m_StaticBatchRoot: {fileID: 0}
  m_ProbeAnchor: {fileID: 0}
  m_LightProbeVolumeOverride: {fileID: 0}
  m_ScaleInLightmap: 1
  m_PreserveUVs: 0
  m_IgnoreNormalsForChartDetection: 0
  m_ImportantGI: 0
  m_StitchLightmapSeams: 0
  m_SelectedEditorRenderState: 3
  m_MinimumChartSize: 4
  m_AutoUVMaxDistance: 0.5
  m_AutoUVMaxAngle: 89
  m_LightmapParameters: {fileID: 0}
  m_SortingLayerID: 0
  m_SortingLayer: 0
  m_SortingOrder: 0
--- !u!33 &758588314
MeshFilter:
  m_ObjectHideFlags: 0
  m_PrefabParentObject: {fileID: 33000014128045998, guid: 05262e1cb6621c84f8f31dd5b4799010,
    type: 2}
  m_PrefabInternal: {fileID: 1977134194}
  m_GameObject: {fileID: 758588312}
  m_Mesh: {fileID: 4300000, guid: 18b73e7ccea5b0546a7811eda281a238, type: 3}
--- !u!4 &758588315
Transform:
  m_ObjectHideFlags: 0
  m_PrefabParentObject: {fileID: 4000010706693742, guid: 05262e1cb6621c84f8f31dd5b4799010,
    type: 2}
  m_PrefabInternal: {fileID: 1977134194}
  m_GameObject: {fileID: 758588312}
  m_LocalRotation: {x: -0.7071068, y: 0, z: -0, w: 0.7071067}
  m_LocalPosition: {x: -9.336, y: 1.971, z: -3.668}
  m_LocalScale: {x: 1, y: 1, z: 1}
  m_Children: []
  m_Father: {fileID: 0}
  m_RootOrder: 1
  m_LocalEulerAnglesHint: {x: 0, y: 0, z: 0}
--- !u!1001 &831317641
Prefab:
  m_ObjectHideFlags: 0
  serializedVersion: 2
  m_Modification:
    m_TransformParent: {fileID: 0}
    m_Modifications:
    - target: {fileID: 4000010544313584, guid: 36e52bed9a7cf6a4d83fb7667bb2b1a8, type: 2}
      propertyPath: m_LocalPosition.x
      value: -3.98
      objectReference: {fileID: 0}
    - target: {fileID: 4000010544313584, guid: 36e52bed9a7cf6a4d83fb7667bb2b1a8, type: 2}
      propertyPath: m_LocalPosition.y
      value: 1.42
      objectReference: {fileID: 0}
    - target: {fileID: 4000010544313584, guid: 36e52bed9a7cf6a4d83fb7667bb2b1a8, type: 2}
      propertyPath: m_LocalPosition.z
      value: 1.91
      objectReference: {fileID: 0}
    - target: {fileID: 4000010544313584, guid: 36e52bed9a7cf6a4d83fb7667bb2b1a8, type: 2}
      propertyPath: m_LocalRotation.x
      value: -0.7071068
      objectReference: {fileID: 0}
    - target: {fileID: 4000010544313584, guid: 36e52bed9a7cf6a4d83fb7667bb2b1a8, type: 2}
      propertyPath: m_LocalRotation.y
      value: 0
      objectReference: {fileID: 0}
    - target: {fileID: 4000010544313584, guid: 36e52bed9a7cf6a4d83fb7667bb2b1a8, type: 2}
      propertyPath: m_LocalRotation.z
      value: -0
      objectReference: {fileID: 0}
    - target: {fileID: 4000010544313584, guid: 36e52bed9a7cf6a4d83fb7667bb2b1a8, type: 2}
      propertyPath: m_LocalRotation.w
      value: 0.7071067
      objectReference: {fileID: 0}
    - target: {fileID: 4000010544313584, guid: 36e52bed9a7cf6a4d83fb7667bb2b1a8, type: 2}
      propertyPath: m_RootOrder
      value: 6
      objectReference: {fileID: 0}
    m_RemovedComponents: []
  m_ParentPrefab: {fileID: 100100000, guid: 36e52bed9a7cf6a4d83fb7667bb2b1a8, type: 2}
  m_RootGameObject: {fileID: 1664819727}
  m_IsPrefabParent: 0
--- !u!1001 &1007238355
Prefab:
  m_ObjectHideFlags: 0
  serializedVersion: 2
  m_Modification:
    m_TransformParent: {fileID: 0}
    m_Modifications:
    - target: {fileID: 4000010544313584, guid: 36e52bed9a7cf6a4d83fb7667bb2b1a8, type: 2}
      propertyPath: m_LocalPosition.x
      value: 3.24
      objectReference: {fileID: 0}
    - target: {fileID: 4000010544313584, guid: 36e52bed9a7cf6a4d83fb7667bb2b1a8, type: 2}
      propertyPath: m_LocalPosition.y
      value: -0.02
      objectReference: {fileID: 0}
    - target: {fileID: 4000010544313584, guid: 36e52bed9a7cf6a4d83fb7667bb2b1a8, type: 2}
      propertyPath: m_LocalPosition.z
      value: -0.611
      objectReference: {fileID: 0}
    - target: {fileID: 4000010544313584, guid: 36e52bed9a7cf6a4d83fb7667bb2b1a8, type: 2}
      propertyPath: m_LocalRotation.x
      value: -0.67999107
      objectReference: {fileID: 0}
    - target: {fileID: 4000010544313584, guid: 36e52bed9a7cf6a4d83fb7667bb2b1a8, type: 2}
      propertyPath: m_LocalRotation.y
      value: -0.1931906
      objectReference: {fileID: 0}
    - target: {fileID: 4000010544313584, guid: 36e52bed9a7cf6a4d83fb7667bb2b1a8, type: 2}
      propertyPath: m_LocalRotation.z
      value: -0.19305915
      objectReference: {fileID: 0}
    - target: {fileID: 4000010544313584, guid: 36e52bed9a7cf6a4d83fb7667bb2b1a8, type: 2}
      propertyPath: m_LocalRotation.w
      value: 0.6804541
      objectReference: {fileID: 0}
    - target: {fileID: 4000010544313584, guid: 36e52bed9a7cf6a4d83fb7667bb2b1a8, type: 2}
      propertyPath: m_RootOrder
      value: 4
      objectReference: {fileID: 0}
    - target: {fileID: 1000010135718398, guid: 36e52bed9a7cf6a4d83fb7667bb2b1a8, type: 2}
      propertyPath: m_Name
      value: box (1)
      objectReference: {fileID: 0}
    - target: {fileID: 4000010544313584, guid: 36e52bed9a7cf6a4d83fb7667bb2b1a8, type: 2}
      propertyPath: m_LocalEulerAnglesHint.x
      value: -89.961006
      objectReference: {fileID: 0}
    - target: {fileID: 4000010544313584, guid: 36e52bed9a7cf6a4d83fb7667bb2b1a8, type: 2}
      propertyPath: m_LocalEulerAnglesHint.y
      value: -31.7
      objectReference: {fileID: 0}
    m_RemovedComponents: []
  m_ParentPrefab: {fileID: 100100000, guid: 36e52bed9a7cf6a4d83fb7667bb2b1a8, type: 2}
  m_RootGameObject: {fileID: 1953120941}
  m_IsPrefabParent: 0
--- !u!1 &1128314840
GameObject:
  m_ObjectHideFlags: 0
  m_PrefabParentObject: {fileID: 0}
  m_PrefabInternal: {fileID: 0}
  serializedVersion: 5
  m_Component:
  - component: {fileID: 1128314845}
  - component: {fileID: 1128314844}
  - component: {fileID: 1128314843}
  - component: {fileID: 1128314842}
  - component: {fileID: 1128314841}
  m_Layer: 0
  m_Name: Main Camera
  m_TagString: MainCamera
  m_Icon: {fileID: 0}
  m_NavMeshLayer: 0
  m_StaticEditorFlags: 0
  m_IsActive: 1
--- !u!81 &1128314841
AudioListener:
  m_ObjectHideFlags: 0
  m_PrefabParentObject: {fileID: 0}
  m_PrefabInternal: {fileID: 0}
  m_GameObject: {fileID: 1128314840}
  m_Enabled: 1
--- !u!124 &1128314842
Behaviour:
  m_ObjectHideFlags: 0
  m_PrefabParentObject: {fileID: 0}
  m_PrefabInternal: {fileID: 0}
  m_GameObject: {fileID: 1128314840}
  m_Enabled: 1
--- !u!92 &1128314843
Behaviour:
  m_ObjectHideFlags: 0
  m_PrefabParentObject: {fileID: 0}
  m_PrefabInternal: {fileID: 0}
  m_GameObject: {fileID: 1128314840}
  m_Enabled: 1
--- !u!20 &1128314844
Camera:
  m_ObjectHideFlags: 0
  m_PrefabParentObject: {fileID: 0}
  m_PrefabInternal: {fileID: 0}
  m_GameObject: {fileID: 1128314840}
  m_Enabled: 1
  serializedVersion: 2
  m_ClearFlags: 1
  m_BackGroundColor: {r: 0.19215687, g: 0.3019608, b: 0.4745098, a: 0}
  m_NormalizedViewPortRect:
    serializedVersion: 2
    x: 0
    y: 0
    width: 1
    height: 1
  near clip plane: 0.3
  far clip plane: 1000
  field of view: 60
  orthographic: 0
  orthographic size: 5
  m_Depth: -1
  m_CullingMask:
    serializedVersion: 2
    m_Bits: 4294967295
  m_RenderingPath: -1
  m_TargetTexture: {fileID: 0}
  m_TargetDisplay: 0
  m_TargetEye: 3
  m_HDR: 0
  m_AllowMSAA: 1
  m_AllowDynamicResolution: 0
  m_ForceIntoRT: 0
  m_OcclusionCulling: 1
  m_StereoConvergence: 10
  m_StereoSeparation: 0.022
--- !u!4 &1128314845
Transform:
  m_ObjectHideFlags: 0
  m_PrefabParentObject: {fileID: 0}
  m_PrefabInternal: {fileID: 0}
  m_GameObject: {fileID: 1128314840}
  m_LocalRotation: {x: -0.09475033, y: -0.44285327, z: -0.046168268, w: 0.8903774}
  m_LocalPosition: {x: -5.04, y: 0.65, z: -6.1}
  m_LocalScale: {x: 1, y: 1, z: 1}
  m_Children: []
  m_Father: {fileID: 0}
  m_RootOrder: 0
  m_LocalEulerAnglesHint: {x: -12.1, y: -52.9, z: 0.1}
--- !u!1 &1210370339
GameObject:
  m_ObjectHideFlags: 0
  m_PrefabParentObject: {fileID: 0}
  m_PrefabInternal: {fileID: 0}
  serializedVersion: 5
  m_Component:
  - component: {fileID: 1210370343}
  - component: {fileID: 1210370342}
  - component: {fileID: 1210370341}
  - component: {fileID: 1210370340}
  m_Layer: 0
  m_Name: Plane
  m_TagString: Untagged
  m_Icon: {fileID: 0}
  m_NavMeshLayer: 0
  m_StaticEditorFlags: 0
  m_IsActive: 1
--- !u!23 &1210370340
MeshRenderer:
  m_ObjectHideFlags: 0
  m_PrefabParentObject: {fileID: 0}
  m_PrefabInternal: {fileID: 0}
  m_GameObject: {fileID: 1210370339}
  m_Enabled: 1
  m_CastShadows: 1
  m_ReceiveShadows: 1
  m_DynamicOccludee: 1
  m_MotionVectors: 1
  m_LightProbeUsage: 1
  m_ReflectionProbeUsage: 1
  m_Materials:
  - {fileID: 2100000, guid: 28e72034c501f53408481d4d8264408b, type: 2}
  m_StaticBatchInfo:
    firstSubMesh: 0
    subMeshCount: 0
  m_StaticBatchRoot: {fileID: 0}
  m_ProbeAnchor: {fileID: 0}
  m_LightProbeVolumeOverride: {fileID: 0}
  m_ScaleInLightmap: 1
  m_PreserveUVs: 1
  m_IgnoreNormalsForChartDetection: 0
  m_ImportantGI: 0
  m_StitchLightmapSeams: 0
  m_SelectedEditorRenderState: 3
  m_MinimumChartSize: 4
  m_AutoUVMaxDistance: 0.5
  m_AutoUVMaxAngle: 89
  m_LightmapParameters: {fileID: 0}
  m_SortingLayerID: 0
  m_SortingLayer: 0
  m_SortingOrder: 0
--- !u!64 &1210370341
MeshCollider:
  m_ObjectHideFlags: 0
  m_PrefabParentObject: {fileID: 0}
  m_PrefabInternal: {fileID: 0}
  m_GameObject: {fileID: 1210370339}
  m_Material: {fileID: 0}
  m_IsTrigger: 0
  m_Enabled: 1
  serializedVersion: 3
  m_Convex: 0
  m_CookingOptions: 14
  m_SkinWidth: 0.01
  m_Mesh: {fileID: 10209, guid: 0000000000000000e000000000000000, type: 0}
--- !u!33 &1210370342
MeshFilter:
  m_ObjectHideFlags: 0
  m_PrefabParentObject: {fileID: 0}
  m_PrefabInternal: {fileID: 0}
  m_GameObject: {fileID: 1210370339}
  m_Mesh: {fileID: 10209, guid: 0000000000000000e000000000000000, type: 0}
--- !u!4 &1210370343
Transform:
  m_ObjectHideFlags: 0
  m_PrefabParentObject: {fileID: 0}
  m_PrefabInternal: {fileID: 0}
  m_GameObject: {fileID: 1210370339}
  m_LocalRotation: {x: 0, y: 0, z: 0, w: 1}
  m_LocalPosition: {x: -6.231587, y: -0.27610135, z: 5.5298657}
  m_LocalScale: {x: 10, y: 10, z: 10}
  m_Children: []
  m_Father: {fileID: 0}
  m_RootOrder: 10
  m_LocalEulerAnglesHint: {x: 0, y: 0, z: 0}
--- !u!1 &1302920540
GameObject:
  m_ObjectHideFlags: 0
  m_PrefabParentObject: {fileID: 1000010135718398, guid: 36e52bed9a7cf6a4d83fb7667bb2b1a8,
    type: 2}
  m_PrefabInternal: {fileID: 277758943}
  serializedVersion: 5
  m_Component:
  - component: {fileID: 1302920543}
  - component: {fileID: 1302920542}
  - component: {fileID: 1302920541}
  m_Layer: 0
  m_Name: box (2)
  m_TagString: Untagged
  m_Icon: {fileID: 0}
  m_NavMeshLayer: 0
  m_StaticEditorFlags: 0
  m_IsActive: 1
--- !u!23 &1302920541
MeshRenderer:
  m_ObjectHideFlags: 0
  m_PrefabParentObject: {fileID: 23000012923087138, guid: 36e52bed9a7cf6a4d83fb7667bb2b1a8,
    type: 2}
  m_PrefabInternal: {fileID: 277758943}
  m_GameObject: {fileID: 1302920540}
  m_Enabled: 1
  m_CastShadows: 1
  m_ReceiveShadows: 1
  m_DynamicOccludee: 1
  m_MotionVectors: 1
  m_LightProbeUsage: 1
  m_ReflectionProbeUsage: 1
  m_Materials:
  - {fileID: 2100000, guid: 1fec9a42e3c016d4cbd9b37059b40752, type: 2}
  m_StaticBatchInfo:
    firstSubMesh: 0
    subMeshCount: 0
  m_StaticBatchRoot: {fileID: 0}
  m_ProbeAnchor: {fileID: 0}
  m_LightProbeVolumeOverride: {fileID: 0}
  m_ScaleInLightmap: 1
  m_PreserveUVs: 0
  m_IgnoreNormalsForChartDetection: 0
  m_ImportantGI: 0
  m_StitchLightmapSeams: 0
  m_SelectedEditorRenderState: 3
  m_MinimumChartSize: 4
  m_AutoUVMaxDistance: 0.5
  m_AutoUVMaxAngle: 89
  m_LightmapParameters: {fileID: 0}
  m_SortingLayerID: 0
  m_SortingLayer: 0
  m_SortingOrder: 0
--- !u!33 &1302920542
MeshFilter:
  m_ObjectHideFlags: 0
  m_PrefabParentObject: {fileID: 33000013610566182, guid: 36e52bed9a7cf6a4d83fb7667bb2b1a8,
    type: 2}
  m_PrefabInternal: {fileID: 277758943}
  m_GameObject: {fileID: 1302920540}
  m_Mesh: {fileID: 4300000, guid: 2510b7f5750e0e546bd3a451169553af, type: 3}
--- !u!4 &1302920543
Transform:
  m_ObjectHideFlags: 0
  m_PrefabParentObject: {fileID: 4000010544313584, guid: 36e52bed9a7cf6a4d83fb7667bb2b1a8,
    type: 2}
  m_PrefabInternal: {fileID: 277758943}
  m_GameObject: {fileID: 1302920540}
  m_LocalRotation: {x: -0.6782805, y: -0.19912119, z: -0.1989857, w: 0.6787423}
  m_LocalPosition: {x: -8.46, y: -0.049, z: -2.93}
  m_LocalScale: {x: 1.3666173, y: 1.3666173, z: 1.3666173}
  m_Children: []
  m_Father: {fileID: 0}
  m_RootOrder: 3
  m_LocalEulerAnglesHint: {x: -89.961006, y: -32.7, z: 0}
--- !u!1 &1383142575
GameObject:
  m_ObjectHideFlags: 0
  m_PrefabParentObject: {fileID: 1000010549523032, guid: 8ddd92bdf8671704d94657c5f04fc0be,
    type: 2}
  m_PrefabInternal: {fileID: 219535457}
  serializedVersion: 5
  m_Component:
  - component: {fileID: 1383142578}
  - component: {fileID: 1383142577}
  - component: {fileID: 1383142576}
  m_Layer: 0
  m_Name: doska
  m_TagString: Untagged
  m_Icon: {fileID: 0}
  m_NavMeshLayer: 0
  m_StaticEditorFlags: 0
  m_IsActive: 1
--- !u!23 &1383142576
MeshRenderer:
  m_ObjectHideFlags: 0
  m_PrefabParentObject: {fileID: 23000012730333382, guid: 8ddd92bdf8671704d94657c5f04fc0be,
    type: 2}
  m_PrefabInternal: {fileID: 219535457}
  m_GameObject: {fileID: 1383142575}
  m_Enabled: 1
  m_CastShadows: 1
  m_ReceiveShadows: 1
  m_DynamicOccludee: 1
  m_MotionVectors: 1
  m_LightProbeUsage: 1
  m_ReflectionProbeUsage: 1
  m_Materials:
  - {fileID: 2100000, guid: b6540734d6b6d1e4ab82190bddeb1c5a, type: 2}
  m_StaticBatchInfo:
    firstSubMesh: 0
    subMeshCount: 0
  m_StaticBatchRoot: {fileID: 0}
  m_ProbeAnchor: {fileID: 0}
  m_LightProbeVolumeOverride: {fileID: 0}
  m_ScaleInLightmap: 1
  m_PreserveUVs: 0
  m_IgnoreNormalsForChartDetection: 0
  m_ImportantGI: 0
  m_StitchLightmapSeams: 0
  m_SelectedEditorRenderState: 3
  m_MinimumChartSize: 4
  m_AutoUVMaxDistance: 0.5
  m_AutoUVMaxAngle: 89
  m_LightmapParameters: {fileID: 0}
  m_SortingLayerID: 0
  m_SortingLayer: 0
  m_SortingOrder: 0
--- !u!33 &1383142577
MeshFilter:
  m_ObjectHideFlags: 0
  m_PrefabParentObject: {fileID: 33000012773936396, guid: 8ddd92bdf8671704d94657c5f04fc0be,
    type: 2}
  m_PrefabInternal: {fileID: 219535457}
  m_GameObject: {fileID: 1383142575}
  m_Mesh: {fileID: 4300000, guid: c9e0489ba3cb03c4ca30be80b7d9a3a2, type: 3}
--- !u!4 &1383142578
Transform:
  m_ObjectHideFlags: 0
  m_PrefabParentObject: {fileID: 4000012414046668, guid: 8ddd92bdf8671704d94657c5f04fc0be,
    type: 2}
  m_PrefabInternal: {fileID: 219535457}
  m_GameObject: {fileID: 1383142575}
  m_LocalRotation: {x: -0, y: 0, z: -0.99999964, w: -0.00087260123}
  m_LocalPosition: {x: -8.707, y: 2.702, z: -2.703}
  m_LocalScale: {x: 1, y: 1, z: 1}
  m_Children: []
  m_Father: {fileID: 0}
  m_RootOrder: 5
  m_LocalEulerAnglesHint: {x: 0, y: 0, z: -180.1}
--- !u!1 &1664819727
GameObject:
  m_ObjectHideFlags: 0
  m_PrefabParentObject: {fileID: 1000010135718398, guid: 36e52bed9a7cf6a4d83fb7667bb2b1a8,
    type: 2}
  m_PrefabInternal: {fileID: 831317641}
  serializedVersion: 5
  m_Component:
  - component: {fileID: 1664819730}
  - component: {fileID: 1664819729}
  - component: {fileID: 1664819728}
  m_Layer: 0
  m_Name: box
  m_TagString: Untagged
  m_Icon: {fileID: 0}
  m_NavMeshLayer: 0
  m_StaticEditorFlags: 0
  m_IsActive: 1
--- !u!23 &1664819728
MeshRenderer:
  m_ObjectHideFlags: 0
  m_PrefabParentObject: {fileID: 23000012923087138, guid: 36e52bed9a7cf6a4d83fb7667bb2b1a8,
    type: 2}
  m_PrefabInternal: {fileID: 831317641}
  m_GameObject: {fileID: 1664819727}
  m_Enabled: 1
  m_CastShadows: 1
  m_ReceiveShadows: 1
  m_DynamicOccludee: 1
  m_MotionVectors: 1
  m_LightProbeUsage: 1
  m_ReflectionProbeUsage: 1
  m_Materials:
  - {fileID: 2100000, guid: 1fec9a42e3c016d4cbd9b37059b40752, type: 2}
  m_StaticBatchInfo:
    firstSubMesh: 0
    subMeshCount: 0
  m_StaticBatchRoot: {fileID: 0}
  m_ProbeAnchor: {fileID: 0}
  m_LightProbeVolumeOverride: {fileID: 0}
  m_ScaleInLightmap: 1
  m_PreserveUVs: 0
  m_IgnoreNormalsForChartDetection: 0
  m_ImportantGI: 0
  m_StitchLightmapSeams: 0
  m_SelectedEditorRenderState: 3
  m_MinimumChartSize: 4
  m_AutoUVMaxDistance: 0.5
  m_AutoUVMaxAngle: 89
  m_LightmapParameters: {fileID: 0}
  m_SortingLayerID: 0
  m_SortingLayer: 0
  m_SortingOrder: 0
--- !u!33 &1664819729
MeshFilter:
  m_ObjectHideFlags: 0
  m_PrefabParentObject: {fileID: 33000013610566182, guid: 36e52bed9a7cf6a4d83fb7667bb2b1a8,
    type: 2}
  m_PrefabInternal: {fileID: 831317641}
  m_GameObject: {fileID: 1664819727}
  m_Mesh: {fileID: 4300000, guid: 2510b7f5750e0e546bd3a451169553af, type: 3}
--- !u!4 &1664819730
Transform:
  m_ObjectHideFlags: 0
  m_PrefabParentObject: {fileID: 4000010544313584, guid: 36e52bed9a7cf6a4d83fb7667bb2b1a8,
    type: 2}
  m_PrefabInternal: {fileID: 831317641}
  m_GameObject: {fileID: 1664819727}
  m_LocalRotation: {x: -0.7071068, y: 0, z: -0, w: 0.7071067}
  m_LocalPosition: {x: -3.98, y: 1.42, z: 1.91}
  m_LocalScale: {x: 1.3666173, y: 1.3666173, z: 1.3666173}
  m_Children: []
  m_Father: {fileID: 0}
  m_RootOrder: 6
  m_LocalEulerAnglesHint: {x: 0, y: 0, z: 0}
--- !u!1 &1789553190
GameObject:
  m_ObjectHideFlags: 0
  m_PrefabParentObject: {fileID: 1000014055932746, guid: de49971f04e49d3469405279c2afd0bc,
    type: 2}
  m_PrefabInternal: {fileID: 257697755}
  serializedVersion: 5
  m_Component:
  - component: {fileID: 1789553193}
  - component: {fileID: 1789553192}
  - component: {fileID: 1789553191}
  m_Layer: 0
  m_Name: Crate_big
  m_TagString: Untagged
  m_Icon: {fileID: 0}
  m_NavMeshLayer: 0
  m_StaticEditorFlags: 0
  m_IsActive: 1
--- !u!23 &1789553191
MeshRenderer:
  m_ObjectHideFlags: 0
  m_PrefabParentObject: {fileID: 23000010098838148, guid: de49971f04e49d3469405279c2afd0bc,
    type: 2}
  m_PrefabInternal: {fileID: 257697755}
  m_GameObject: {fileID: 1789553190}
  m_Enabled: 1
  m_CastShadows: 1
  m_ReceiveShadows: 1
  m_DynamicOccludee: 1
  m_MotionVectors: 1
  m_LightProbeUsage: 1
  m_ReflectionProbeUsage: 1
  m_Materials:
  - {fileID: 2100000, guid: b932dc2eaaa517c4aa0f8d6d7be5ef12, type: 2}
  m_StaticBatchInfo:
    firstSubMesh: 0
    subMeshCount: 0
  m_StaticBatchRoot: {fileID: 0}
  m_ProbeAnchor: {fileID: 0}
  m_LightProbeVolumeOverride: {fileID: 0}
  m_ScaleInLightmap: 1
  m_PreserveUVs: 0
  m_IgnoreNormalsForChartDetection: 0
  m_ImportantGI: 0
  m_StitchLightmapSeams: 0
  m_SelectedEditorRenderState: 3
  m_MinimumChartSize: 4
  m_AutoUVMaxDistance: 0.5
  m_AutoUVMaxAngle: 89
  m_LightmapParameters: {fileID: 0}
  m_SortingLayerID: 0
  m_SortingLayer: 0
  m_SortingOrder: 0
--- !u!33 &1789553192
MeshFilter:
  m_ObjectHideFlags: 0
  m_PrefabParentObject: {fileID: 33000012186336872, guid: de49971f04e49d3469405279c2afd0bc,
    type: 2}
  m_PrefabInternal: {fileID: 257697755}
  m_GameObject: {fileID: 1789553190}
  m_Mesh: {fileID: 4300000, guid: 185618570808e9948b17f83587dfedb0, type: 3}
--- !u!4 &1789553193
Transform:
  m_ObjectHideFlags: 0
  m_PrefabParentObject: {fileID: 4000010841522358, guid: de49971f04e49d3469405279c2afd0bc,
    type: 2}
  m_PrefabInternal: {fileID: 257697755}
  m_GameObject: {fileID: 1789553190}
  m_LocalRotation: {x: -0, y: 0, z: -0.7071068, w: 0.7071068}
  m_LocalPosition: {x: -9.04, y: 1.22, z: -1.8}
  m_LocalScale: {x: 1, y: 1, z: 1}
  m_Children: []
  m_Father: {fileID: 0}
  m_RootOrder: 7
  m_LocalEulerAnglesHint: {x: -180, y: -180, z: 90}
--- !u!1 &1953120941
GameObject:
  m_ObjectHideFlags: 0
  m_PrefabParentObject: {fileID: 1000010135718398, guid: 36e52bed9a7cf6a4d83fb7667bb2b1a8,
    type: 2}
  m_PrefabInternal: {fileID: 1007238355}
  serializedVersion: 5
  m_Component:
  - component: {fileID: 1953120944}
  - component: {fileID: 1953120943}
  - component: {fileID: 1953120942}
  m_Layer: 0
  m_Name: box (1)
  m_TagString: Untagged
  m_Icon: {fileID: 0}
  m_NavMeshLayer: 0
  m_StaticEditorFlags: 0
  m_IsActive: 1
--- !u!23 &1953120942
MeshRenderer:
  m_ObjectHideFlags: 0
  m_PrefabParentObject: {fileID: 23000012923087138, guid: 36e52bed9a7cf6a4d83fb7667bb2b1a8,
    type: 2}
  m_PrefabInternal: {fileID: 1007238355}
  m_GameObject: {fileID: 1953120941}
  m_Enabled: 1
  m_CastShadows: 1
  m_ReceiveShadows: 1
  m_DynamicOccludee: 1
  m_MotionVectors: 1
  m_LightProbeUsage: 1
  m_ReflectionProbeUsage: 1
  m_Materials:
  - {fileID: 2100000, guid: 1fec9a42e3c016d4cbd9b37059b40752, type: 2}
  m_StaticBatchInfo:
    firstSubMesh: 0
    subMeshCount: 0
  m_StaticBatchRoot: {fileID: 0}
  m_ProbeAnchor: {fileID: 0}
  m_LightProbeVolumeOverride: {fileID: 0}
  m_ScaleInLightmap: 1
  m_PreserveUVs: 0
  m_IgnoreNormalsForChartDetection: 0
  m_ImportantGI: 0
  m_StitchLightmapSeams: 0
  m_SelectedEditorRenderState: 3
  m_MinimumChartSize: 4
  m_AutoUVMaxDistance: 0.5
  m_AutoUVMaxAngle: 89
  m_LightmapParameters: {fileID: 0}
  m_SortingLayerID: 0
  m_SortingLayer: 0
  m_SortingOrder: 0
--- !u!33 &1953120943
MeshFilter:
  m_ObjectHideFlags: 0
  m_PrefabParentObject: {fileID: 33000013610566182, guid: 36e52bed9a7cf6a4d83fb7667bb2b1a8,
    type: 2}
  m_PrefabInternal: {fileID: 1007238355}
  m_GameObject: {fileID: 1953120941}
  m_Mesh: {fileID: 4300000, guid: 2510b7f5750e0e546bd3a451169553af, type: 3}
--- !u!4 &1953120944
Transform:
  m_ObjectHideFlags: 0
  m_PrefabParentObject: {fileID: 4000010544313584, guid: 36e52bed9a7cf6a4d83fb7667bb2b1a8,
    type: 2}
  m_PrefabInternal: {fileID: 1007238355}
  m_GameObject: {fileID: 1953120941}
  m_LocalRotation: {x: -0.67999107, y: -0.1931906, z: -0.19305915, w: 0.6804541}
  m_LocalPosition: {x: 3.24, y: -0.02, z: -0.611}
  m_LocalScale: {x: 1.3666173, y: 1.3666173, z: 1.3666173}
  m_Children: []
  m_Father: {fileID: 0}
  m_RootOrder: 4
  m_LocalEulerAnglesHint: {x: -89.961006, y: -31.7, z: 0}
--- !u!1001 &1977134194
Prefab:
  m_ObjectHideFlags: 0
  serializedVersion: 2
  m_Modification:
    m_TransformParent: {fileID: 0}
    m_Modifications:
    - target: {fileID: 4000010706693742, guid: 05262e1cb6621c84f8f31dd5b4799010, type: 2}
      propertyPath: m_LocalPosition.x
      value: -9.336
      objectReference: {fileID: 0}
    - target: {fileID: 4000010706693742, guid: 05262e1cb6621c84f8f31dd5b4799010, type: 2}
      propertyPath: m_LocalPosition.y
      value: 1.971
      objectReference: {fileID: 0}
    - target: {fileID: 4000010706693742, guid: 05262e1cb6621c84f8f31dd5b4799010, type: 2}
      propertyPath: m_LocalPosition.z
      value: -3.668
      objectReference: {fileID: 0}
    - target: {fileID: 4000010706693742, guid: 05262e1cb6621c84f8f31dd5b4799010, type: 2}
      propertyPath: m_LocalRotation.x
      value: -0.7071068
      objectReference: {fileID: 0}
    - target: {fileID: 4000010706693742, guid: 05262e1cb6621c84f8f31dd5b4799010, type: 2}
      propertyPath: m_LocalRotation.y
      value: 0
      objectReference: {fileID: 0}
    - target: {fileID: 4000010706693742, guid: 05262e1cb6621c84f8f31dd5b4799010, type: 2}
      propertyPath: m_LocalRotation.z
      value: -0
      objectReference: {fileID: 0}
    - target: {fileID: 4000010706693742, guid: 05262e1cb6621c84f8f31dd5b4799010, type: 2}
      propertyPath: m_LocalRotation.w
      value: 0.7071067
      objectReference: {fileID: 0}
    - target: {fileID: 4000010706693742, guid: 05262e1cb6621c84f8f31dd5b4799010, type: 2}
      propertyPath: m_RootOrder
      value: 1
      objectReference: {fileID: 0}
    - target: {fileID: 1000013743448318, guid: 05262e1cb6621c84f8f31dd5b4799010, type: 2}
      propertyPath: m_Name
      value: Crate (1)
      objectReference: {fileID: 0}
    m_RemovedComponents: []
  m_ParentPrefab: {fileID: 100100000, guid: 05262e1cb6621c84f8f31dd5b4799010, type: 2}
  m_RootGameObject: {fileID: 758588312}
  m_IsPrefabParent: 0
--- !u!1 &2000262588
GameObject:
  m_ObjectHideFlags: 0
  m_PrefabParentObject: {fileID: 1000013743448318, guid: 05262e1cb6621c84f8f31dd5b4799010,
    type: 2}
  m_PrefabInternal: {fileID: 602754975}
  serializedVersion: 5
  m_Component:
  - component: {fileID: 2000262591}
  - component: {fileID: 2000262590}
  - component: {fileID: 2000262589}
  m_Layer: 0
  m_Name: Crate
  m_TagString: Untagged
  m_Icon: {fileID: 0}
  m_NavMeshLayer: 0
  m_StaticEditorFlags: 0
  m_IsActive: 1
--- !u!23 &2000262589
MeshRenderer:
  m_ObjectHideFlags: 0
  m_PrefabParentObject: {fileID: 23000011582790500, guid: 05262e1cb6621c84f8f31dd5b4799010,
    type: 2}
  m_PrefabInternal: {fileID: 602754975}
  m_GameObject: {fileID: 2000262588}
  m_Enabled: 1
  m_CastShadows: 1
  m_ReceiveShadows: 1
  m_DynamicOccludee: 1
  m_MotionVectors: 1
  m_LightProbeUsage: 1
  m_ReflectionProbeUsage: 1
  m_Materials:
  - {fileID: 2100000, guid: 97429fb59f97eff41870a03268f27a45, type: 2}
  m_StaticBatchInfo:
    firstSubMesh: 0
    subMeshCount: 0
  m_StaticBatchRoot: {fileID: 0}
  m_ProbeAnchor: {fileID: 0}
  m_LightProbeVolumeOverride: {fileID: 0}
  m_ScaleInLightmap: 1
  m_PreserveUVs: 0
  m_IgnoreNormalsForChartDetection: 0
  m_ImportantGI: 0
  m_StitchLightmapSeams: 0
  m_SelectedEditorRenderState: 3
  m_MinimumChartSize: 4
  m_AutoUVMaxDistance: 0.5
  m_AutoUVMaxAngle: 89
  m_LightmapParameters: {fileID: 0}
  m_SortingLayerID: 0
  m_SortingLayer: 0
  m_SortingOrder: 0
--- !u!33 &2000262590
MeshFilter:
  m_ObjectHideFlags: 0
  m_PrefabParentObject: {fileID: 33000014128045998, guid: 05262e1cb6621c84f8f31dd5b4799010,
    type: 2}
  m_PrefabInternal: {fileID: 602754975}
  m_GameObject: {fileID: 2000262588}
  m_Mesh: {fileID: 4300000, guid: 18b73e7ccea5b0546a7811eda281a238, type: 3}
--- !u!4 &2000262591
Transform:
  m_ObjectHideFlags: 0
  m_PrefabParentObject: {fileID: 4000010706693742, guid: 05262e1cb6621c84f8f31dd5b4799010,
    type: 2}
  m_PrefabInternal: {fileID: 602754975}
  m_GameObject: {fileID: 2000262588}
  m_LocalRotation: {x: -0.7071068, y: 0, z: -0, w: 0.7071067}
  m_LocalPosition: {x: -9.33, y: 0.49, z: -3.694}
  m_LocalScale: {x: 1, y: 1, z: 1}
  m_Children: []
  m_Father: {fileID: 0}
  m_RootOrder: 2
  m_LocalEulerAnglesHint: {x: 0, y: 0, z: 0}
